%!PS-Adobe-3.0 EPSF-3.0
%%Creator: cairo 1.15.10 (http://cairographics.org)
%%CreationDate: Tue May 29 19:35:02 2018
%%Pages: 1
%%DocumentData: Clean7Bit
%%LanguageLevel: 2
%%BoundingBox: 11 190 828 455
%%EndComments
%%BeginProlog
50 dict begin
/q { gsave } bind def
/Q { grestore } bind def
/cm { 6 array astore concat } bind def
/w { setlinewidth } bind def
/J { setlinecap } bind def
/j { setlinejoin } bind def
/M { setmiterlimit } bind def
/d { setdash } bind def
/m { moveto } bind def
/l { lineto } bind def
/c { curveto } bind def
/h { closepath } bind def
/re { exch dup neg 3 1 roll 5 3 roll moveto 0 rlineto
      0 exch rlineto 0 rlineto closepath } bind def
/S { stroke } bind def
/f { fill } bind def
/f* { eofill } bind def
/n { newpath } bind def
/W { clip } bind def
/W* { eoclip } bind def
/BT { } bind def
/ET { } bind def
/BDC { mark 3 1 roll /BDC pdfmark } bind def
/EMC { mark /EMC pdfmark } bind def
/cairo_store_point { /cairo_point_y exch def /cairo_point_x exch def } def
/Tj { show currentpoint cairo_store_point } bind def
/TJ {
  {
    dup
    type /stringtype eq
    { show } { -0.001 mul 0 cairo_font_matrix dtransform rmoveto } ifelse
  } forall
  currentpoint cairo_store_point
} bind def
/cairo_selectfont { cairo_font_matrix aload pop pop pop 0 0 6 array astore
    cairo_font exch selectfont cairo_point_x cairo_point_y moveto } bind def
/Tf { pop /cairo_font exch def /cairo_font_matrix where
      { pop cairo_selectfont } if } bind def
/Td { matrix translate cairo_font_matrix matrix concatmatrix dup
      /cairo_font_matrix exch def dup 4 get exch 5 get cairo_store_point
      /cairo_font where { pop cairo_selectfont } if } bind def
/Tm { 2 copy 8 2 roll 6 array astore /cairo_font_matrix exch def
      cairo_store_point /cairo_font where { pop cairo_selectfont } if } bind def
/g { setgray } bind def
/rg { setrgbcolor } bind def
/d1 { setcachedevice } bind def
/cairo_data_source {
  CairoDataIndex CairoData length lt
    { CairoData CairoDataIndex get /CairoDataIndex CairoDataIndex 1 add def }
    { () } ifelse
} def
/cairo_flush_ascii85_file { cairo_ascii85_file status { cairo_ascii85_file flushfile } if } def
/cairo_image { image cairo_flush_ascii85_file } def
/cairo_imagemask { imagemask cairo_flush_ascii85_file } def
%%EndProlog
%%BeginSetup
%%EndSetup
%%Page: 1 1
%%BeginPageSetup
%%PageBoundingBox: 11 190 828 455
%%EndPageSetup
q 11 190 817 265 rectclip
1 0 0 -1 0 596 cm q
1 0.862745 0.0588235 rg
177.227 318.078 m 177.344 302.016 171.848 286.082 162.48 273.977 c 146.605
 253.465 125.449 243.508 99.465 244.504 c 85.184 245.051 72.152 249.77 60.523
 258.09 c 44.242 269.746 34.426 285.703 30.723 305.188 c 28.793 315.344 
29.152 325.684 31.781 335.859 c 34.961 348.188 40.676 359.102 49.352 368.418
 c 60.012 379.863 73.141 387.121 88.348 390.402 c 99.492 392.809 110.688
 392.645 121.785 389.527 c 130.523 387.074 138.863 383.93 145.879 377.922
 c 149.938 374.441 154.594 371.531 158.113 367.59 c 170.66 353.551 176.941
 336.926 177.227 318.078 c 14.168 314.012 m 14.852 308.031 15.547 302.453
 16.113 296.867 c 16.855 289.48 16.805 282.152 14.027 275.094 c 10.875 267.078
 10.789 259.336 16.383 252.254 c 20.586 246.934 26.031 243.922 32.957 243.953
 c 34.777 243.961 36.613 243.805 38.418 243.984 c 46.766 244.828 54.313 
242.219 61.703 238.805 c 76.426 232.012 91.777 229.227 107.984 231.242 c
 137.98 234.973 161.055 249.887 177.77 274.691 c 188.828 291.102 193.336
 309.516 192.145 329.246 c 191.84 334.242 190.973 339.223 190.16 344.176
 c 189.355 349.066 190.691 353.629 191.898 358.238 c 192.754 361.5 193.84
 364.719 194.434 368.027 c 196.777 381.098 185.664 393.082 172.895 392.316
 c 171.34 392.223 169.758 392.441 168.215 392.285 c 160.145 391.469 152.797
 393.855 145.672 397.25 c 136.105 401.801 126.066 404.555 115.492 405.328
 c 90.305 407.172 68.176 399.402 48.742 383.68 c 34.309 372.004 24.238 357.18
 18.406 339.535 c 17.566 336.992 16.84 334.375 16.445 331.73 c 15.547 325.754
 14.891 319.742 14.168 314.012 c f
0.541176 0.772549 0.239216 rg
55.191 235.508 m 51.016 225.719 51.188 216.215 54.414 206.645 c 57.586 
197.242 63.203 189.445 70.398 182.68 c 61.238 187.031 54.254 193.676 49.73
 202.742 c 45.086 212.047 44.859 221.723 48.379 232.074 c 47.453 231.566
 46.973 231.441 46.688 231.133 c 40.832 224.84 35.957 217.934 34.117 209.371
 c 31.641 197.863 35.207 187.777 42.027 178.672 c 49.781 168.316 59.781 
160.434 70.777 153.859 c 77.973 149.563 85.531 145.871 92.93 141.922 c 93.223
 141.766 93.574 141.73 94.211 141.551 c 94.602 142.625 95.137 143.609 95.313
 144.66 c 97.262 156.145 98.207 167.594 96.367 179.281 c 94.441 191.484 
90.637 202.805 83.531 212.91 c 76.441 223 67.066 230.324 55.191 235.508 
c f
1 0.862745 0.0588235 rg
96.781 387.926 m 85.625 386.84 75.398 383.355 66.023 377.43 c 55.77 370.953
 47.727 362.391 41.77 351.48 c 117.742 351.48 l 110.691 363.738 103.801 
375.715 96.781 387.926 c f
89.496 284.695 m 90.527 282.871 91.43 281.242 92.359 279.625 c 98.012 269.801
 103.688 259.988 109.305 250.141 c 110.059 248.82 110.855 248.367 112.457
 248.578 c 131.387 251.109 146.664 260.07 158.602 274.816 c 161.008 277.789
 162.961 281.129 165.125 284.301 c 165.031 284.434 164.938 284.563 164.844
 284.695 c h
89.496 284.695 m f
67.207 313.152 m 60.223 301.41 53.242 289.664 46.156 277.75 c 52.746 268.266
 61.297 261.027 71.477 255.652 c 83.633 249.234 98.977 247.316 105.09 248.211
 c 92.598 269.922 80.168 291.531 67.742 313.137 c 67.563 313.141 67.383 
313.148 67.207 313.152 c f
101.973 388.242 m 114.625 366.258 127.059 344.656 139.676 322.734 c 146.852
 334.801 153.832 346.539 160.859 358.359 c 152.668 369.91 142.059 378.246
 129.016 383.445 c 120.473 386.848 111.57 388.336 101.973 388.242 c f
43.516 282.383 m 56.148 303.68 68.77 324.953 81.574 346.535 c 80.586 346.66
 80.098 346.777 79.609 346.777 c 66.746 346.789 53.883 346.773 41.02 346.809
 c 39.852 346.813 39.105 346.414 38.773 345.328 c 37.383 340.844 35.758 
336.41 34.703 331.848 c 32.926 324.207 32.984 316.406 33.93 308.672 c 35.004
 299.902 37.914 291.668 42.168 283.918 c 42.395 283.508 42.664 283.121 42.938
 282.734 c 43.008 282.633 43.164 282.594 43.516 282.383 c f
163.582 353.832 m 150.875 332.449 138.25 311.207 125.434 289.641 c 167.57
 289.641 l 172.172 300.375 174.117 311.602 173.469 323.316 c 172.949 332.754
 168.063 348.16 163.582 353.832 c f
243.539 356.93 m 279.887 356.93 l 279.887 344.434 l 257.289 344.434 l 257.289
 269.508 l 243.539 269.508 l h
243.539 356.93 m f
314.617 281.984 m 338.34 281.984 l 338.34 269.508 l 300.867 269.508 l 300.867
 356.93 l 338.34 356.93 l 338.34 344.434 l 314.617 344.434 l 314.617 318.844
 l 333.48 318.844 l 333.48 306.344 l 314.617 306.344 l h
314.617 281.984 m f
380.809 269.508 m 361.711 269.508 l 361.711 356.93 l 373.699 356.93 l 373.699
 295.098 l 373.934 295.098 l 383.926 356.93 l 396.91 356.93 l 406.164 294.23
 l 406.418 294.23 l 406.418 356.93 l 419.402 356.93 l 419.402 269.508 l 
400.285 269.508 l 391.055 331.574 l 390.801 331.574 l h
380.809 269.508 m f
456.996 289.602 m 456.996 283.363 459.734 280.988 464.105 280.988 c 468.477
 280.988 471.234 283.363 471.234 289.602 c 471.234 336.813 l 471.234 343.074
 468.477 345.43 464.105 345.43 c 459.734 345.43 456.996 343.074 456.996 
336.813 c h
443.246 335.945 m 443.246 349.926 450.633 357.926 464.105 357.926 c 477.602
 357.926 484.965 349.926 484.965 335.945 c 484.965 290.492 l 484.965 276.488
 477.602 268.512 464.105 268.512 c 450.633 268.512 443.246 276.488 443.246
 290.492 c h
443.246 335.945 m f
538.184 356.93 m 552.297 356.93 l 552.297 269.508 l 540.051 269.508 l 540.051
 321.836 l 539.797 321.836 l 525.941 269.508 l 508.711 269.508 l 508.711
 356.93 l 521.063 356.93 l 521.063 293.613 l 521.316 293.613 l h
538.184 356.93 m f
604 324.336 m 604 336.813 l 604 343.074 601.242 345.324 596.871 345.324
 c 592.5 345.324 589.762 343.074 589.762 336.813 c 589.762 289.602 l 589.762
 283.363 592.5 280.988 596.871 280.988 c 601.242 280.988 604 283.363 604
 289.602 c 604 298.98 l 616.984 298.98 l 616.984 290.492 l 616.984 276.488
 609.984 268.512 596.508 268.512 c 583.016 268.512 576.012 276.488 576.012
 290.492 c 576.012 335.945 l 576.012 349.926 583.016 357.926 596.508 357.926
 c 609.984 357.926 616.984 349.926 616.984 335.945 c 616.984 324.336 l h
604 324.336 m f
670.824 269.508 m 650.711 269.508 l 636.727 356.93 l 649.332 356.93 l 651.707
 341.059 l 668.574 341.059 l 670.953 356.93 l 684.809 356.93 l h
659.961 285 m 660.195 285 l 666.688 329.195 l 653.445 329.195 l h
659.961 285 m f
725.145 269.508 m 706.047 269.508 l 706.047 356.93 l 718.035 356.93 l 718.035
 295.098 l 718.27 295.098 l 728.262 356.93 l 741.25 356.93 l 750.5 294.23
 l 750.754 294.23 l 750.754 356.93 l 763.742 356.93 l 763.742 269.508 l 
744.621 269.508 l 735.395 331.574 l 735.137 331.574 l h
725.145 269.508 m f
786.969 290.492 m 786.969 300.488 790.598 307.723 802.078 317.844 c 811.074
 325.695 813.832 330.449 813.832 336.813 c 813.832 343.074 811.074 345.324
 806.703 345.324 c 802.332 345.324 799.594 343.074 799.594 336.813 c 799.594
 330.574 l 786.586 330.574 l 786.586 335.945 l 786.586 349.926 793.59 357.926
 807.086 357.926 c 820.559 357.926 827.563 349.926 827.563 335.945 c 827.563
 325.949 823.934 318.715 812.453 308.594 c 803.457 300.723 800.699 295.988
 800.699 289.602 c 800.699 283.363 803.203 280.988 807.574 280.988 c 811.945
 280.988 814.449 283.363 814.449 289.602 c 814.449 293.23 l 827.434 293.23
 l 827.434 290.492 l 827.434 276.488 820.559 268.512 807.211 268.512 c 793.844
 268.512 786.969 276.488 786.969 290.492 c h
786.969 290.492 m f
Q Q
showpage
%%Trailer
end
%%EOF
