{
  "entry": {
    "category": "news",
    "title": "Welcome Stripchat",
    "url": "welcome-stripchat",
    "date": "2020-09-28",
    "description": "Welcome on Lemoncams for a new Cam Provider: Stripchat"
  }
}
